{
  "$schema": "https://docs.renovatebot.com/renovate-schema.json",
  "extends": [
    "config:base",
    ":disableDependencyDashboard"
  ],
  "packageRules": [
    {
      "matchDatasources": ["sbt-package", "sbt-plugin"],
      "enabled": false
    },
    {
      "matchPackageNames": ["scala"],
      "enabled": false
    }
  ],
  "regexManagers": [
    {
      "fileMatch": ["^\\.gitlab-ci\\.yml$"],
      "matchStrings": [
        "\\s*#\\s*renovate:\\s*datasource=(?<datasource>.*?) depName=(?<depName>.*?)( extractVersion=(?<extractVersion>.+?))?( versioning=(?<versioning>.*?))?\\s*.*?_VERSION:\\s*(?<currentValue>.*)\\s"
      ],
      "versioningTemplate": "{{#if versioning}}{{{versioning}}}{{else}}semver{{/if}}",
      "extractVersionTemplate": "{{#if extractVersion}}{{{extractVersion}}}{{else}}^(?<version>.*)${{/if}}"
    },
    {
      "fileMatch": ["^project/build\\.properties$"],
      "matchStrings": [
        "\\s*#\\s*renovate:\\s*datasource=(?<datasource>.*?) depName=(?<depName>.*?)( versioning=(?<versioning>.*?))?\\s*.*?.version=\\s*(?<currentValue>.*)\\s"
      ],
      "versioningTemplate": "{{#if versioning}}{{{versioning}}}{{else}}semver{{/if}}"
    }
  ]
}
